1/1/2014,21140.48,0
1/2/2014,20888.33,-0.011927355
1/3/2014,20851.33,-0.001771324
1/4/2014,20851.33,0
1/5/2014,20851.33,0
1/6/2014,20787.3,-0.003070787
1/7/2014,20693.24,-0.004524878
1/8/2014,20729.38,0.001746464
1/9/2014,20713.37,-0.000772334
1/10/2014,20758.49,0.002178303
1/11/2014,20758.49,0
1/12/2014,20758.49,0
1/13/2014,21134.21,0.018099582
1/14/2014,21032.88,-0.004794596
1/15/2014,21289.49,0.012200421
1/16/2014,21265.18,-0.001141878
1/17/2014,21063.62,-0.009478406
1/18/2014,21063.62,0
1/19/2014,21063.62,0
1/20/2014,21205.05,0.00671442
1/21/2014,21251.12,0.002172596
1/22/2014,21337.67,0.004072727
1/23/2014,21373.66,0.001686688
1/24/2014,21133.56,-0.011233453
1/25/2014,21133.56,0
1/26/2014,21133.56,0
1/27/2014,20707.45,-0.020162717
1/28/2014,20683.51,-0.001156106
1/29/2014,20647.3,-0.00175067
1/30/2014,20498.25,-0.007218862
1/31/2014,20513.85,0.000761041
2/1/2014,20513.85,0
2/2/2014,20513.85,0
2/3/2014,20209.26,-0.014848017
2/4/2014,20211.93,0.000132118
2/5/2014,20261.03,0.002429258
2/6/2014,20310.74,0.002453478
2/7/2014,20376.56,0.00324065
2/8/2014,20376.56,0
2/9/2014,20376.56,0
2/10/2014,20334.27,-0.002075424
2/11/2014,20363.37,0.001431082
2/12/2014,20448.49,0.004180055
2/13/2014,20193.35,-0.012477205
2/14/2014,20366.82,0.008590452
2/15/2014,20366.82,0
2/16/2014,20366.82,0
2/17/2014,20464.06,0.004774432
2/18/2014,20634.21,0.008314577
2/19/2014,20722.97,0.004301594
2/20/2014,20536.64,-0.008991472
2/21/2014,20700.75,0.007991083
2/22/2014,20700.75,0
2/23/2014,20700.75,0
2/24/2014,20811.44,0.005347149
2/25/2014,20852.47,0.001971512
2/26/2014,20986.99,0.006451034
2/27/2014,20986.99,0
2/28/2014,21120.12,0.006343454
3/1/2014,21120.12,0
3/2/2014,21120.12,0
3/3/2014,20946.65,-0.008213495
3/4/2014,21209.73,0.012559526
3/5/2014,21276.86,0.003165057
3/6/2014,21513.87,0.011139332
3/7/2014,21919.79,0.018867828
3/8/2014,21919.79,0
3/9/2014,21919.79,0
3/10/2014,21934.83,0.000686138
3/11/2014,21826.42,-0.004942368
3/12/2014,21856.22,0.001365318
3/13/2014,21774.61,-0.003733949
3/14/2014,21809.8,0.001616102
3/15/2014,21809.8,0
3/16/2014,21809.8,0
3/17/2014,21809.8,0
3/18/2014,21832.61,0.00104586
3/19/2014,21832.86,1.14508E-05
3/20/2014,21740.09,-0.0042491
3/21/2014,21753.75,0.000628332
3/22/2014,21755.32,7.21715E-05
3/23/2014,21755.32,0
3/24/2014,22055.48,0.013797085
3/25/2014,22055.21,-1.22419E-05
3/26/2014,22095.3,0.001817711
3/27/2014,22214.37,0.005388929
3/28/2014,22339.97,0.005653998
3/29/2014,22339.97,0
3/30/2014,22339.97,0
3/31/2014,22386.27,0.002072518
4/1/2014,22446.44,0.002687808
4/2/2014,22551.49,0.004680029
4/3/2014,22509.07,-0.001881029
4/4/2014,22359.5,-0.006644877
4/5/2014,22359.5,0
4/6/2014,22359.5,0
4/7/2014,22343.45,-0.000717816
4/8/2014,22343.45,0
4/9/2014,22702.34,0.016062425
4/10/2014,22715.33,0.000572188
4/11/2014,22628.96,-0.003802278
4/12/2014,22628.96,0
4/13/2014,22628.96,0
4/14/2014,22628.96,0
4/15/2014,22484.93,-0.006364853
4/16/2014,22277.23,-0.009237298
4/17/2014,22628.84,0.015783381
4/18/2014,22628.84,0
4/19/2014,22628.84,0
4/20/2014,22628.84,0
4/21/2014,22764.83,0.006009588
4/22/2014,22758.37,-0.000283771
4/23/2014,22876.54,0.005192375
4/24/2014,22876.54,0
4/25/2014,22688.07,-0.008238571
4/26/2014,22688.07,0
4/27/2014,22688.07,0
4/28/2014,22631.61,-0.002488533
4/29/2014,22466.19,-0.007309246
4/30/2014,22417.8,-0.002153903
5/1/2014,22417.8,0
5/2/2014,22403.89,-0.000620489
5/3/2014,22403.89,0
5/4/2014,22403.89,0
5/5/2014,22445.12,0.001840305
5/6/2014,22508.42,0.002820212
5/7/2014,22323.9,-0.008197821
5/8/2014,22344.04,0.000902172
5/9/2014,22994.23,0.029099035
5/10/2014,22994.23,0
5/11/2014,22994.23,0
5/12/2014,23551,0.024213466
5/13/2014,23871.23,0.013597299
5/14/2014,23815.12,-0.002350528
5/15/2014,23905.6,0.003799267
5/16/2014,24121.74,0.009041396
5/17/2014,24121.74,0
5/18/2014,24121.74,0
5/19/2014,24363.05,0.010003839
5/20/2014,24376.88,0.000567663
5/21/2014,24298.02,-0.003235033
5/22/2014,24374.4,0.003143466
5/23/2014,24693.35,0.01308545
5/24/2014,24693.35,0
5/25/2014,24693.35,0
5/26/2014,24716.88,0.000952888
5/27/2014,24549.51,-0.006771486
5/28/2014,24556.09,0.00026803
5/29/2014,24234.15,-0.013110393
5/30/2014,24217.34,-0.000693649
5/31/2014,24217.34,0
6/1/2014,24217.34,0
6/2/2014,24684.85,0.019304763
6/3/2014,24858.59,0.007038325
6/4/2014,24805.83,-0.002122405
6/5/2014,25019.51,0.008614104
6/6/2014,25396.46,0.015066242
6/7/2014,25396.46,0
6/8/2014,25396.46,0
6/9/2014,25580.21,0.00723526
6/10/2014,25583.69,0.000136043
6/11/2014,25473.89,-0.004291797
6/12/2014,25576.21,0.004016662
6/13/2014,25228.17,-0.013607958
6/14/2014,25228.17,0
6/15/2014,25228.17,0
6/16/2014,25190.48,-0.001493965
6/17/2014,25521.19,0.013128372
6/18/2014,25246.25,-0.010773009
6/19/2014,25201.8,-0.001760658
6/20/2014,25105.51,-0.003820759
6/21/2014,25105.51,0
6/22/2014,25105.51,0
6/23/2014,25031.32,-0.002955128
6/24/2014,25368.9,0.013486304
6/25/2014,25313.74,-0.002174316
6/26/2014,25062.67,-0.009918329
6/27/2014,25099.92,0.001486274
6/28/2014,25099.92,0
6/29/2014,25099.92,0
6/30/2014,25413.78,0.012504422
7/1/2014,25516.35,0.004035999
7/2/2014,25841.21,0.012731445
7/3/2014,25823.75,-0.000675665
7/4/2014,25962.06,0.005355922
7/5/2014,25962.06,0
7/6/2014,25962.06,0
7/7/2014,26100.08,0.005316219
7/8/2014,25582.11,-0.019845533
7/9/2014,25444.81,-0.005367032
7/10/2014,25372.75,-0.002832012
7/11/2014,25024.35,-0.013731267
7/12/2014,25024.35,0
7/13/2014,25024.35,0
7/14/2014,25006.98,-0.000694124
7/15/2014,25228.65,0.008864325
7/16/2014,25549.72,0.012726404
7/17/2014,25561.16,0.000447754
7/18/2014,25641.56,0.003145397
7/19/2014,25641.56,0
7/20/2014,25641.56,0
7/21/2014,25715.17,0.00287073
7/22/2014,26025.8,0.01207964
7/23/2014,26147.33,0.004669597
7/24/2014,26271.85,0.004762245
7/25/2014,26126.75,-0.005523022
7/26/2014,26126.75,0
7/27/2014,26126.75,0
7/28/2014,25991.23,-0.005187021
7/29/2014,25991.23,0
7/30/2014,26087.42,0.003700864
7/31/2014,25894.97,-0.007377119
8/1/2014,25480.84,-0.015992681
8/2/2014,25480.84,0
8/3/2014,25480.84,0
8/4/2014,25723.16,0.009509891
8/5/2014,25908.01,0.007186131
8/6/2014,25665.27,-0.009369303
8/7/2014,25589.01,-0.002971331
8/8/2014,25329.14,-0.010155532
8/9/2014,25329.14,0
8/10/2014,25329.14,0
8/11/2014,25519.24,0.00750519
8/12/2014,25880.77,0.014166958
8/13/2014,25918.95,0.001475227
8/14/2014,26103.23,0.007109856
8/15/2014,26103.23,0
8/16/2014,26103.23,0
8/17/2014,26103.23,0
8/18/2014,26390.96,0.011022774
8/19/2014,26420.67,0.001125764
8/20/2014,26314.29,-0.004026393
8/21/2014,26360.11,0.001741259
8/22/2014,26419.55,0.002254922
8/23/2014,26419.55,0
8/24/2014,26419.55,0
8/25/2014,26437.02,0.000661253
8/26/2014,26442.81,0.000219011
8/27/2014,26560.15,0.004437501
8/28/2014,26638.11,0.002935224
8/29/2014,26638.11,0
8/30/2014,26638.11,0
8/31/2014,26638.11,0
9/1/2014,26867.55,0.008613224
9/2/2014,27019.39,0.005651427
9/3/2014,27139.94,0.004461611
9/4/2014,27085.93,-0.001990056
9/5/2014,27026.7,-0.002186744
9/6/2014,27026.7,0
9/7/2014,27026.7,0
9/8/2014,27319.85,0.010846681
9/9/2014,27265.32,-0.001995985
9/10/2014,27057.41,-0.007625438
9/11/2014,26995.87,-0.002274423
9/12/2014,27061.04,0.002414073
9/13/2014,27061.04,0
9/14/2014,27061.04,0
9/15/2014,26816.56,-0.00903439
9/16/2014,26492.51,-0.012083951
9/17/2014,26631.29,0.005238462
9/18/2014,27112.21,0.018058457
9/19/2014,27090.42,-0.000803697
9/20/2014,27090.42,0
9/21/2014,27090.42,0
9/22/2014,27206.74,0.004293769
9/23/2014,26775.69,-0.015843501
9/24/2014,26744.69,-0.001157767
9/25/2014,26468.36,-0.010332144
9/26/2014,26626.32,0.00596788
9/27/2014,26626.32,0
9/28/2014,26626.32,0
9/29/2014,26597.11,-0.001097035
9/30/2014,26630.51,0.001255776
10/1/2014,26567.99,-0.002347683
10/2/2014,26567.99,0
10/3/2014,26567.99,0
10/4/2014,26567.99,0
10/5/2014,26567.99,0
10/6/2014,26567.99,0
10/7/2014,26271.97,-0.01114198
10/8/2014,26246.79,-0.000958436
10/9/2014,26637.28,0.014877629
10/10/2014,26297.38,-0.012760312
10/11/2014,26297.38,0
10/12/2014,26297.38,0
10/13/2014,26384.07,0.003296526
10/14/2014,26349.33,-0.001316704
10/15/2014,26349.33,0
10/16/2014,25999.34,-0.013282691
10/17/2014,26108.53,0.004199722
10/18/2014,26108.53,0
10/19/2014,26108.53,0
10/20/2014,26429.85,0.012307089
10/21/2014,26575.65,0.00551649
10/22/2014,26787.23,0.007961423
10/23/2014,26851.05,0.002382479
10/24/2014,26851.05,0
10/25/2014,26851.05,0
10/26/2014,26851.05,0
10/27/2014,26752.9,-0.003655351
10/28/2014,26880.82,0.004781538
10/29/2014,27098.17,0.008085691
10/30/2014,27346.33,0.009157814
10/31/2014,27865.83,0.018997065
11/1/2014,27865.83,0
11/2/2014,27865.83,0
11/3/2014,27860.38,-0.00019558
11/4/2014,27860.38,0
11/5/2014,27915.88,0.001992076
11/6/2014,27915.88,0
11/7/2014,27868.63,-0.001692585
11/8/2014,27868.63,0
11/9/2014,27868.63,0
11/10/2014,27874.73,0.000218884
11/11/2014,27910.06,0.001267456
11/12/2014,28008.9,0.003541375
11/13/2014,27940.64,-0.002437082
11/14/2014,28046.66,0.003794473
11/15/2014,28046.66,0
11/16/2014,28046.66,0
11/17/2014,28177.88,0.004678632
11/18/2014,28163.29,-0.000517782
11/19/2014,28032.85,-0.004631561
11/20/2014,28067.56,0.00123819
11/21/2014,28334.63,0.009515255
11/22/2014,28334.63,0
11/23/2014,28334.63,0
11/24/2014,28499.54,0.005820087
11/25/2014,28338.05,-0.005666407
11/26/2014,28386.19,0.001698776
11/27/2014,28438.91,0.001857241
11/28/2014,28693.99,0.008969401
11/29/2014,28693.99,0
11/30/2014,28693.99,0
12/1/2014,28559.62,-0.004682862
12/2/2014,28444.01,-0.004048023
12/3/2014,28442.71,-4.57038E-05
12/4/2014,28562.82,0.004222875
12/5/2014,28458.1,-0.003666305
12/6/2014,28458.1,0
12/7/2014,28458.1,0
12/8/2014,28119.4,-0.011901708
12/9/2014,27797.01,-0.011465038
12/10/2014,27831.1,0.001226391
12/11/2014,27602.01,-0.008231439
12/12/2014,27350.68,-0.009105496
12/13/2014,27350.68,0
12/14/2014,27350.68,0
12/15/2014,27319.56,-0.001137814
12/16/2014,26781.44,-0.019697243
12/17/2014,26710.13,-0.002662665
12/18/2014,27126.57,0.015591088
12/19/2014,27371.84,0.009041689
12/20/2014,27371.84,0
12/21/2014,27371.84,0
12/22/2014,27701.79,0.01205436
12/23/2014,27506.46,-0.007051169
12/24/2014,27208.61,-0.010828365
12/25/2014,27208.61,0
12/26/2014,27241.78,0.001219099
12/27/2014,27241.78,0
12/28/2014,27241.78,0
12/29/2014,27395.73,0.005651246
12/30/2014,27403.54,0.000285081
12/31/2014,27499.42,0.003498818
1/1/2015,27507.54,0.000295279
1/2/2015,27887.9,0.013827481
1/3/2015,27887.9,0
1/4/2015,27887.9,0
1/5/2015,27842.32,-0.001634401
1/6/2015,26987.46,-0.03070362
1/7/2015,26908.82,-0.002913946
1/8/2015,27274.71,0.0135974
1/9/2015,27458.38,0.006734077
1/10/2015,27458.38,0
1/11/2015,27458.38,0
1/12/2015,27585.27,0.004621176
1/13/2015,27425.73,-0.005783521
1/14/2015,27346.82,-0.002877225
1/15/2015,28075.55,0.026647705
1/16/2015,28121.89,0.001650546
1/17/2015,28121.89,0
1/18/2015,28121.89,0
1/19/2015,28262.01,0.004982595
1/20/2015,28784.67,0.018493377
1/21/2015,28888.86,0.003619635
1/22/2015,29006.02,0.004055543
1/23/2015,29278.84,0.009405634
1/24/2015,29278.84,0
1/25/2015,29278.84,0
1/26/2015,29278.84,0
1/27/2015,29571.04,0.009979904
1/28/2015,29559.18,-0.000401068
1/29/2015,29681.77,0.004147273
1/30/2015,29182.95,-0.016805602
1/31/2015,29182.95,0
2/1/2015,29182.95,0
2/2/2015,29122.27,-0.002079296
2/3/2015,29000.14,-0.004193698
2/4/2015,28883.11,-0.004035498
2/5/2015,28850.97,-0.001112761
2/6/2015,28717.91,-0.004611977
2/7/2015,28717.91,0
2/8/2015,28717.91,0
2/9/2015,28227.39,-0.01708063
2/10/2015,28355.62,0.004542751
2/11/2015,28533.97,0.006289758
2/12/2015,28805.1,0.009502008
2/13/2015,29094.93,0.01006176
2/14/2015,29094.93,0
2/15/2015,29094.93,0
2/16/2015,29135.88,0.001407462
2/17/2015,29135.88,0
2/18/2015,29320.26,0.00632828
2/19/2015,29462.27,0.004843409
2/20/2015,29231.41,-0.007835785
2/21/2015,29231.41,0
2/22/2015,29231.41,0
2/23/2015,28975.11,-0.008767966
2/24/2015,29004.66,0.001019841
2/25/2015,29007.99,0.000114809
2/26/2015,28746.65,-0.009009242
2/27/2015,29220.12,0.016470441
2/28/2015,29361.5,0.004838447
3/1/2015,29361.5,0
3/2/2015,29459.14,0.003325443
3/3/2015,29593.73,0.004568701
3/4/2015,29380.73,-0.007197471
3/5/2015,29448.95,0.00232193
3/6/2015,29448.95,0
3/7/2015,29448.95,0
3/8/2015,29448.95,0
3/9/2015,28844.78,-0.020515842
3/10/2015,28709.87,-0.004677103
3/11/2015,28659.17,-0.001765943
3/12/2015,28930.41,0.009464335
3/13/2015,28503.3,-0.014763358
3/14/2015,28503.3,0
3/15/2015,28503.3,0
3/16/2015,28437.71,-0.002301137
3/17/2015,28736.38,0.010502604
3/18/2015,28622.12,-0.003976145
3/19/2015,28469.67,-0.0053263
3/20/2015,28261.08,-0.007326745
3/21/2015,28261.08,0
3/22/2015,28261.08,0
3/23/2015,28192.02,-0.002443643
3/24/2015,28161.72,-0.001074772
3/25/2015,28111.83,-0.001771554
3/26/2015,27457.58,-0.02327312
3/27/2015,27458.64,3.8605E-05
3/28/2015,27458.64,0
3/29/2015,27458.64,0
3/30/2015,27975.86,0.01883633
3/31/2015,27957.49,-0.000656638
4/1/2015,28260.14,0.010825364
4/2/2015,28260.14,0
4/3/2015,28260.14,0
4/4/2015,28260.14,0
4/5/2015,28260.14,0
4/6/2015,28504.46,0.008645392
4/7/2015,28516.59,0.000425547
4/8/2015,28707.75,0.006703466
4/9/2015,28885.21,0.006181606
4/10/2015,28879.38,-0.000201833
4/11/2015,28879.38,0
4/12/2015,28879.38,0
4/13/2015,29044.44,0.005715497
4/14/2015,29044.44,0
4/15/2015,28799.69,-0.008426742
4/16/2015,28666.04,-0.004640675
4/17/2015,28442.1,-0.007812031
4/18/2015,28442.1,0
4/19/2015,28442.1,0
4/20/2015,27886.21,-0.019544619
4/21/2015,27676.04,-0.0075367
4/22/2015,27890.13,0.007735572
4/23/2015,27735.02,-0.005561466
4/24/2015,27437.94,-0.010711368
4/25/2015,27437.94,0
4/26/2015,27437.94,0
4/27/2015,27176.99,-0.009510554
4/28/2015,27396.38,0.008072638
4/29/2015,27225.93,-0.006221625
4/30/2015,27011.31,-0.007882926
5/1/2015,27011.31,0
5/2/2015,27011.31,0
5/3/2015,27011.31,0
5/4/2015,27490.59,0.017743678
5/5/2015,27440.14,-0.001835173
5/6/2015,26717.37,-0.02633988
5/7/2015,26599.11,-0.004426334
5/8/2015,27105.39,0.01903372
5/9/2015,27105.39,0
5/10/2015,27105.39,0
5/11/2015,27507.3,0.014827678
5/12/2015,26877.48,-0.022896467
5/13/2015,27251.1,0.013900857
5/14/2015,27206.06,-0.001652777
5/15/2015,27324,0.004335064
5/16/2015,27324,0
5/17/2015,27324,0
5/18/2015,27687.3,0.013296004
5/19/2015,27645.53,-0.001508634
5/20/2015,27837.21,0.00693349
5/21/2015,27809.35,-0.001000819
5/22/2015,27957.5,0.005327345
5/23/2015,27957.5,0
5/24/2015,27957.5,0
5/25/2015,27643.88,-0.011217741
5/26/2015,27531.41,-0.004068532
5/27/2015,27564.66,0.001207711
5/28/2015,27506.71,-0.00210233
5/29/2015,27828.44,0.011696419
5/30/2015,27828.44,0
5/31/2015,27828.44,0
6/1/2015,27848.99,0.000738453
6/2/2015,27188.38,-0.023721148
6/3/2015,26837.2,-0.012916547
6/4/2015,26813.42,-0.000886083
6/5/2015,26768.49,-0.001675653
6/6/2015,26768.49,0
6/7/2015,26768.49,0
6/8/2015,26523.09,-0.009167495
6/9/2015,26481.25,-0.001577493
6/10/2015,26840.5,0.013566203
6/11/2015,26370.98,-0.017492968
6/12/2015,26425.3,0.00205984
6/13/2015,26425.3,0
6/14/2015,26425.3,0
6/15/2015,26586.55,0.006102107
6/16/2015,26686.51,0.003759796
6/17/2015,26832.66,0.00547655
6/18/2015,27115.83,0.010553184
6/19/2015,27316.17,0.007388304
6/20/2015,27316.17,0
6/21/2015,27316.17,0
6/22/2015,27730.21,0.015157323
6/23/2015,27804.37,0.00267434
6/24/2015,27729.67,-0.002686628
6/25/2015,27895.97,0.005997186
6/26/2015,27811.84,-0.003015848
6/27/2015,27811.84,0
6/28/2015,27811.84,0
6/29/2015,27645.15,-0.005993491
6/30/2015,27780.83,0.004907913
7/1/2015,28020.87,0.008640491
7/2/2015,27945.8,-0.002679075
7/3/2015,28092.79,0.005259824
7/4/2015,28092.79,0
7/5/2015,28092.79,0
7/6/2015,28208.76,0.004128105
7/7/2015,28171.69,-0.001314131
7/8/2015,27687.72,-0.017179303
7/9/2015,27573.66,-0.004119516
7/10/2015,27661.4,0.003182022
7/11/2015,27661.4,0
7/12/2015,27661.4,0
7/13/2015,27961.19,0.010837846
7/14/2015,27932.9,-0.00101176
7/15/2015,28198.29,0.009500983
7/16/2015,28446.12,0.008788831
7/17/2015,28463.31,0.0006043
7/18/2015,28463.31,0
7/19/2015,28463.31,0
7/20/2015,28420.12,-0.001517392
7/21/2015,28182.14,-0.008373645
7/22/2015,28504.93,0.011453708
7/23/2015,28370.84,-0.004704099
7/24/2015,28112.31,-0.009112525
7/25/2015,28112.31,0
7/26/2015,28112.31,0
7/27/2015,27561.38,-0.019597465
7/28/2015,27459.23,-0.003706273
7/29/2015,27563.43,0.003794717
7/30/2015,27705.35,0.005148851
7/31/2015,28114.56,0.014770071
8/1/2015,28114.56,0
8/2/2015,28114.56,0
8/3/2015,28187.06,0.002578735
8/4/2015,28071.93,-0.004084498
8/5/2015,28223.08,0.005384382
8/6/2015,28298.13,0.002659171
8/7/2015,28236.39,-0.00218177
8/8/2015,28236.39,0
8/9/2015,28236.39,0
8/10/2015,28101.72,-0.004769377
8/11/2015,27866.09,-0.008384896
8/12/2015,27512.26,-0.012697512
8/13/2015,27549.53,0.001354669
8/14/2015,28067.31,0.018794513
8/15/2015,28067.31,0
8/16/2015,28067.31,0
8/17/2015,27878.27,-0.006735238
8/18/2015,27831.54,-0.001676216
8/19/2015,27931.64,0.003596639
8/20/2015,27607.82,-0.011593304
8/21/2015,27366.07,-0.008756577
8/22/2015,27366.07,0
8/23/2015,27366.07,0
8/24/2015,25741.56,-0.059362196
8/25/2015,26032.38,0.011297684
8/26/2015,25714.66,-0.0122048
8/27/2015,26231.19,0.020086985
8/28/2015,26392.38,0.006144975
8/29/2015,26392.38,0
8/30/2015,26392.38,0
8/31/2015,26283.09,-0.004140968
9/1/2015,25696.44,-0.022320435
9/2/2015,25453.56,-0.009451893
9/3/2015,25764.78,0.012226973
9/4/2015,25201.9,-0.021846878
9/5/2015,25201.9,0
9/6/2015,25201.9,0
9/7/2015,24893.81,-0.012224872
9/8/2015,25317.87,0.017034757
9/9/2015,25719.58,0.015866659
9/10/2015,25622.17,-0.003787387
9/11/2015,25610.21,-0.000466783
9/12/2015,25610.21,0
9/13/2015,25610.21,0
9/14/2015,25856.7,0.009624677
9/15/2015,25705.93,-0.005830984
9/16/2015,25963.97,0.010038151
9/17/2015,25963.97,0
9/18/2015,26218.91,0.009818991
9/19/2015,26218.91,0
9/20/2015,26218.91,0
9/21/2015,26192.98,-0.000988981
9/22/2015,25651.84,-0.020659734
9/23/2015,25822.99,0.006672036
9/24/2015,25863.5,0.001568757
9/25/2015,25863.5,0
9/26/2015,25863.5,0
9/27/2015,25863.5,0
9/28/2015,25616.84,-0.009536992
9/29/2015,25778.66,0.006316938
9/30/2015,26154.83,0.014592302
10/1/2015,26220.95,0.002528023
10/2/2015,26220.95,0
10/3/2015,26220.95,0
10/4/2015,26220.95,0
10/5/2015,26785.55,0.021532401
10/6/2015,26932.88,0.005500354
10/7/2015,27035.85,0.003823208
10/8/2015,26845.81,-0.007029185
10/9/2015,27079.51,0.008705269
10/10/2015,27079.51,0
10/11/2015,27079.51,0
10/12/2015,26904.11,-0.006477222
10/13/2015,26846.53,-0.002140193
10/14/2015,26779.66,-0.002490825
10/15/2015,27010.14,0.008606532
10/16/2015,27214.6,0.00756975
10/17/2015,27214.6,0
10/18/2015,27214.6,0
10/19/2015,27364.92,0.005523506
10/20/2015,27306.83,-0.002122791
10/21/2015,27287.66,-0.000702022
10/22/2015,27287.66,0
10/23/2015,27470.81,0.006711825
10/24/2015,27470.81,0
10/25/2015,27470.81,0
10/26/2015,27361.96,-0.003962388
10/27/2015,27253.44,-0.00396609
10/28/2015,27039.76,-0.007840478
10/29/2015,26838.14,-0.007456427
10/30/2015,26656.83,-0.006755684
10/31/2015,26656.83,0
11/1/2015,26656.83,0
11/2/2015,26559.15,-0.003664352
11/3/2015,26590.59,0.001183773
11/4/2015,26552.92,-0.001416667
11/5/2015,26304.2,-0.009366955
11/6/2015,26265.24,-0.001481132
11/7/2015,26265.24,0
11/8/2015,26265.24,0
11/9/2015,26121.4,-0.00547644
11/10/2015,25743.26,-0.014476253
11/11/2015,25866.95,0.004804753
11/12/2015,25866.95,0
11/13/2015,25610.53,-0.009913036
11/14/2015,25610.53,0
11/15/2015,25610.53,0
11/16/2015,25760.1,0.005840176
11/17/2015,25864.47,0.004051615
11/18/2015,25482.52,-0.014767362
11/19/2015,25841.92,0.014103786
11/20/2015,25868.49,0.001028174
11/21/2015,25868.49,0
11/22/2015,25868.49,0
11/23/2015,25819.34,-0.001899995
11/24/2015,25775.74,-0.001688657
11/25/2015,25775.74,0
11/26/2015,25958.63,0.007095432
11/27/2015,26128.2,0.006532317
11/28/2015,26128.2,0
11/29/2015,26128.2,0
11/30/2015,26145.67,0.000668626
12/1/2015,26169.41,0.00090799
12/2/2015,26117.85,-0.001970239
12/3/2015,25886.62,-0.008853332
12/4/2015,25638.11,-0.00959994
12/5/2015,25638.11,0
12/6/2015,25638.11,0
12/7/2015,25530.11,-0.004212479
12/8/2015,25310.33,-0.008608659
12/9/2015,25036.05,-0.010836682
12/10/2015,25252.32,0.008638344
12/11/2015,25044.43,-0.008232511
12/12/2015,25044.43,0
12/13/2015,25044.43,0
12/14/2015,25150.35,0.004229284
12/15/2015,25320.44,0.006762928
12/16/2015,25494.37,0.006869154
12/17/2015,25803.78,0.012136405
12/18/2015,25519.22,-0.011027842
12/19/2015,25519.22,0
12/20/2015,25519.22,0
12/21/2015,25735.9,0.008490855
12/22/2015,25590.65,-0.005643867
12/23/2015,25850.3,0.010146284
12/24/2015,25838.71,-0.000448351
12/25/2015,25838.71,0
12/26/2015,25838.71,0
12/27/2015,25838.71,0
12/28/2015,26034.13,0.007563071
12/29/2015,26079.48,0.001741944
12/30/2015,25960.03,-0.004580229
12/31/2015,26117.54,0.006067404
1/1/2016,26160.9,0.001660187
1/2/2016,26160.9,0
1/3/2016,26160.9,0
1/4/2016,25623.35,-0.02054784
1/5/2016,25580.34,-0.001678547
1/6/2016,25406.33,-0.00680249
1/7/2016,24851.83,-0.02182527
1/8/2016,24934.33,0.003319675
1/9/2016,24934.33,0
1/10/2016,24934.33,0
1/11/2016,24825.04,-0.004383114
1/12/2016,24682.03,-0.005760716
1/13/2016,24854.11,0.006971874
1/14/2016,24772.97,-0.003264651
1/15/2016,24455.04,-0.012833746
1/16/2016,24455.04,0
1/17/2016,24455.04,0
1/18/2016,24188.37,-0.010904501
1/19/2016,24479.84,0.012050006
1/20/2016,24062.04,-0.017067105
1/21/2016,23962.21,-0.004148859
1/22/2016,24435.66,0.019758194
1/23/2016,24435.66,0
1/24/2016,24435.66,0
1/25/2016,24485.95,0.002058058
1/26/2016,24485.95,0
1/27/2016,24492.39,0.000263008
1/28/2016,24469.57,-0.000931718
1/29/2016,24870.69,0.016392605
1/30/2016,24870.69,0
1/31/2016,24870.69,0
2/1/2016,24824.83,-0.001843938
2/2/2016,24539,-0.011513875
2/3/2016,24223.32,-0.01286442
2/4/2016,24338.43,0.004752032
2/5/2016,24616.97,0.011444452
2/6/2016,24616.97,0
2/7/2016,24616.97,0
2/8/2016,24287.42,-0.013387107
2/9/2016,24020.98,-0.010970288
2/10/2016,23758.9,-0.010910462
2/11/2016,22951.83,-0.033969165
2/12/2016,22986.12,0.001493999
2/13/2016,22986.12,0
2/14/2016,22986.12,0
2/15/2016,23554.12,0.024710564
2/16/2016,23191.97,-0.015375229
2/17/2016,23381.87,0.008188179
2/18/2016,23649.22,0.011434073
2/19/2016,23709.15,0.002534122
2/20/2016,23709.15,0
2/21/2016,23709.15,0
2/22/2016,23788.79,0.003359041
2/23/2016,23410.18,-0.01591548
2/24/2016,23088.93,-0.013722663
2/25/2016,22976,-0.004891088
2/26/2016,23154.3,0.007760272
2/27/2016,23154.3,0
2/28/2016,23154.3,0
2/29/2016,23002,-0.006577612
3/1/2016,23779.35,0.033794887
3/2/2016,24242.98,0.019497169
3/3/2016,24606.99,0.015015068
3/4/2016,24646.48,0.001604829
3/5/2016,24646.48,0
3/6/2016,24646.48,0
3/7/2016,24646.48,0
3/8/2016,24659.23,0.000517315
3/9/2016,24793.96,0.005463674
3/10/2016,24623.34,-0.006881515
3/11/2016,24717.99,0.003843914
3/12/2016,24717.99,0
3/13/2016,24717.99,0
3/14/2016,24804.28,0.00349098
3/15/2016,24551.17,-0.010204287
3/16/2016,24682.48,0.005348421
3/17/2016,24677.37,-0.000207029
3/18/2016,24952.74,0.011158807
3/19/2016,24952.74,0
3/20/2016,24952.74,0
3/21/2016,25285.37,0.0133304
3/22/2016,25330.49,0.001784431
3/23/2016,25337.56,0.00027911
3/24/2016,25337.56,0
3/25/2016,25337.56,0
3/26/2016,25337.56,0
3/27/2016,25337.56,0
3/28/2016,24966.4,-0.014648609
3/29/2016,24900.46,-0.00264115
3/30/2016,25338.58,0.017594856
3/31/2016,25341.86,0.000129447
4/1/2016,25269.64,-0.00284983
4/2/2016,25269.64,0
4/3/2016,25269.64,0
4/4/2016,25399.65,0.005144909
4/5/2016,24883.59,-0.020317603
4/6/2016,24900.63,0.000684789
4/7/2016,24685.42,-0.008642753
4/8/2016,24673.84,-0.000469103
4/9/2016,24673.84,0
4/10/2016,24673.84,0
4/11/2016,25022.16,0.014116976
4/12/2016,25145.59,0.004932828
4/13/2016,25626.75,0.019134966
4/14/2016,25626.75,0
4/15/2016,25626.75,0
4/16/2016,25626.75,0
4/17/2016,25626.75,0
4/18/2016,25816.36,0.007398909
4/19/2016,25816.36,0
4/20/2016,25844.18,0.001077611
4/21/2016,25880.38,0.001400702
4/22/2016,25838.14,-0.001632124
4/23/2016,25838.14,0
4/24/2016,25838.14,0
4/25/2016,25678.93,-0.006161821
4/26/2016,26007.3,0.012787527
4/27/2016,26064.12,0.002184771
4/28/2016,25603.1,-0.017687917
4/29/2016,25606.62,0.000137483
4/30/2016,25606.62,0
5/1/2016,25606.62,0
5/2/2016,25436.97,-0.00662524
5/3/2016,25229.7,-0.008148376
5/4/2016,25101.73,-0.005072197
5/5/2016,25262.21,0.006393185
5/6/2016,25228.5,-0.001334404
5/7/2016,25228.5,0
5/8/2016,25228.5,0
5/9/2016,25688.86,0.018247617
5/10/2016,25772.53,0.003257054
5/11/2016,25597.02,-0.006809964
5/12/2016,25790.22,0.007547754
5/13/2016,25489.57,-0.01165752
5/14/2016,25489.57,0
5/15/2016,25489.57,0
5/16/2016,25653.23,0.006420665
5/17/2016,25773.61,0.004692586
5/18/2016,25704.61,-0.002677157
5/19/2016,25399.72,-0.011861296
5/20/2016,25301.9,-0.003851224
5/21/2016,25301.9,0
5/22/2016,25301.9,0
5/23/2016,25230.36,-0.002827456
5/24/2016,25305.47,0.002976969
5/25/2016,25881.17,0.022750022
5/26/2016,26366.68,0.018759198
5/27/2016,26653.6,0.010881916
5/28/2016,26653.6,0
5/29/2016,26653.6,0
5/30/2016,26725.6,0.002701324
5/31/2016,26667.96,-0.002156734
6/1/2016,26713.93,0.001723791
6/2/2016,26843.14,0.004836802
6/3/2016,26843.03,-4.09788E-06
6/4/2016,26843.03,0
6/5/2016,26843.03,0
6/6/2016,26777.45,-0.002443092
6/7/2016,27009.67,0.008672222
6/8/2016,27020.66,0.000406891
6/9/2016,26763.46,-0.009518642
6/10/2016,26635.75,-0.004771805
6/11/2016,26635.75,0
6/12/2016,26635.75,0
6/13/2016,26396.77,-0.008972152
6/14/2016,26395.71,-4.01564E-05
6/15/2016,26726.34,0.012525899
6/16/2016,26525.46,-0.007516181
6/17/2016,26625.91,0.003786928
6/18/2016,26625.91,0
6/19/2016,26625.91,0
6/20/2016,26866.92,0.009051709
6/21/2016,26812.78,-0.002015117
6/22/2016,26765.65,-0.001757744
6/23/2016,27002.22,0.008838567
6/24/2016,26397.71,-0.022387419
6/25/2016,26397.71,0
6/26/2016,26397.71,0
6/27/2016,26402.96,0.000198881
6/28/2016,26524.55,0.004605165
6/29/2016,26740.39,0.008137367
6/30/2016,26999.72,0.009698063
7/1/2016,27144.91,0.005377463
7/2/2016,27144.91,0
7/3/2016,27144.91,0
7/4/2016,27278.76,0.004930943
7/5/2016,27166.87,-0.004101726
7/6/2016,27166.87,0
7/7/2016,27201.49,0.001274346
7/8/2016,27126.9,-0.002742129
7/9/2016,27126.9,0
7/10/2016,27126.9,0
7/11/2016,27626.69,0.018424147
7/12/2016,27808.14,0.006567924
7/13/2016,27815.18,0.000253163
7/14/2016,27942.11,0.004563336
7/15/2016,27836.5,-0.0037796
7/16/2016,27836.5,0
7/17/2016,27836.5,0
7/18/2016,27746.66,-0.003227417
7/19/2016,27787.62,0.001476214
7/20/2016,27915.89,0.004616084
7/21/2016,27710.52,-0.007356742
7/22/2016,27803.24,0.003346022
7/23/2016,27803.24,0
7/24/2016,27803.24,0
7/25/2016,28095.34,0.01050597
7/26/2016,27976.52,-0.004229171
7/27/2016,28024.33,0.001708933
7/28/2016,28208.62,0.006576072
7/29/2016,28051.86,-0.005557167
7/30/2016,28051.86,0
7/31/2016,28051.86,0
8/1/2016,28003.12,-0.001737496
8/2/2016,27981.71,-0.000764558
8/3/2016,27697.51,-0.010156634
8/4/2016,27714.37,0.000608719
8/5/2016,28078.35,0.013133259
8/6/2016,28078.35,0
8/7/2016,28078.35,0
8/8/2016,28182.57,0.003711757
8/9/2016,28085.16,-0.003456392
8/10/2016,27774.88,-0.011047827
8/11/2016,27859.6,0.003050238
8/12/2016,28152.4,0.010509842
8/13/2016,28152.4,0
8/14/2016,28152.4,0
8/15/2016,28152.4,0
8/16/2016,28064.61,-0.003118384
8/17/2016,28005.37,-0.002110844
8/18/2016,28123.44,0.004215977
8/19/2016,28077,-0.001651292
8/20/2016,28077,0
8/21/2016,28077,0
8/22/2016,27985.54,-0.003257471
8/23/2016,27990.21,0.000166872
8/24/2016,28059.94,0.002491228
8/25/2016,27835.91,-0.00798398
8/26/2016,27782.25,-0.001927726
8/27/2016,27782.25,0
8/28/2016,27782.25,0
8/29/2016,27902.66,0.004334062
8/30/2016,28343.01,0.015781649
8/31/2016,28452.17,0.003851391
9/1/2016,28423.48,-0.001008359
9/2/2016,28532.11,0.00382184
9/3/2016,28532.11,0
9/4/2016,28532.11,0
9/5/2016,28532.11,0
9/6/2016,28978.02,0.015628357
9/7/2016,28926.36,-0.00178273
9/8/2016,29045.28,0.004111129
9/9/2016,28797.25,-0.008539425
9/10/2016,28797.25,0
9/11/2016,28797.25,0
9/12/2016,28353.54,-0.015408068
9/13/2016,28353.54,0
9/14/2016,28372.23,0.000659177
9/15/2016,28412.89,0.001433091
9/16/2016,28599.03,0.006551252
9/17/2016,28599.03,0
9/18/2016,28599.03,0
9/19/2016,28634.5,0.001240252
9/20/2016,28523.2,-0.00388692
9/21/2016,28507.42,-0.000553234
9/22/2016,28773.13,0.009320731
9/23/2016,28668.22,-0.00364611
9/24/2016,28668.22,0
9/25/2016,28668.22,0
9/26/2016,28294.28,-0.013043712
9/27/2016,28223.7,-0.002494497
9/28/2016,28292.81,0.002448651
9/29/2016,27827.53,-0.016445168
9/30/2016,27865.96,0.001381007
10/1/2016,27865.96,0
10/2/2016,27865.96,0
10/3/2016,28243.29,0.013540894
10/4/2016,28334.55,0.00323121
10/5/2016,28220.98,-0.004008181
10/6/2016,28106.21,-0.004066833
10/7/2016,28061.14,-0.00160356
10/8/2016,28061.14,0
10/9/2016,28061.14,0
10/10/2016,28082.34,0.000755493
10/11/2016,28082.34,0
10/12/2016,28082.34,0
10/13/2016,27643.11,-0.015640791
10/14/2016,27673.6,0.001102987
10/15/2016,27673.6,0
10/16/2016,27673.6,0
10/17/2016,27529.97,-0.005190145
10/18/2016,28050.88,0.018921561
10/19/2016,27984.37,-0.002371049
10/20/2016,28129.84,0.005198259
10/21/2016,28077.18,-0.001872033
10/22/2016,28077.18,0
10/23/2016,28077.18,0
10/24/2016,28179.08,0.003629282
10/25/2016,28091.42,-0.003110818
10/26/2016,27836.51,-0.009074301
10/27/2016,27915.9,0.00285201
10/28/2016,27941.51,0.000917398
10/29/2016,27941.51,0
10/30/2016,27930.21,-0.000404416
10/31/2016,27930.21,0
11/1/2016,27876.61,-0.001919069
11/2/2016,27527.22,-0.012533446
11/3/2016,27430.28,-0.003521605
11/4/2016,27274.15,-0.005691885
11/5/2016,27274.15,0
11/6/2016,27274.15,0
11/7/2016,27458.99,0.006777113
11/8/2016,27591.14,0.004812631
11/9/2016,27252.53,-0.012272418
11/10/2016,27517.68,0.009729372
11/11/2016,26818.82,-0.025396763
11/12/2016,26818.82,0
11/13/2016,26818.82,0
11/14/2016,26818.82,0
11/15/2016,26304.63,-0.01917273
11/16/2016,26298.69,-0.000225816
11/17/2016,26227.62,-0.002702416
11/18/2016,26150.24,-0.002950325
11/19/2016,26150.24,0
11/20/2016,26150.24,0
11/21/2016,25765.14,-0.014726442
11/22/2016,25960.78,0.007593205
11/23/2016,26051.81,0.003506443
11/24/2016,25860.17,-0.007356111
11/25/2016,26316.34,0.017639869
11/26/2016,26316.34,0
11/27/2016,26316.34,0
11/28/2016,26350.17,0.001285513
11/29/2016,26394.01,0.001663746
11/30/2016,26652.81,0.009805255
12/1/2016,26559.92,-0.003485186
12/2/2016,26230.66,-0.012396875
12/3/2016,26230.66,0
12/4/2016,26230.66,0
12/5/2016,26349.1,0.004515327
12/6/2016,26392.76,0.001656983
12/7/2016,26236.87,-0.005906544
12/8/2016,26694.28,0.017433863
12/9/2016,26747.18,0.001981698
12/10/2016,26747.18,0
12/11/2016,26747.18,0
12/12/2016,26515.24,-0.008671568
12/13/2016,26697.82,0.006885851
12/14/2016,26602.84,-0.003557594
12/15/2016,26519.07,-0.003148912
12/16/2016,26489.56,-0.001112784
12/17/2016,26489.56,0
12/18/2016,26489.56,0
12/19/2016,26374.7,-0.004336048
12/20/2016,26307.98,-0.002529697
12/21/2016,26242.38,-0.00249354
12/22/2016,25979.6,-0.010013573
12/23/2016,26040.7,0.002351845
12/24/2016,26040.7,0
12/25/2016,26040.7,0
12/26/2016,25807.1,-0.008970573
12/27/2016,26213.44,0.015745279
12/28/2016,26210.68,-0.00010529
12/29/2016,26366.15,0.005931552
12/30/2016,26626.46,0.009872886
12/31/2016,26626.46,0
